ex_03/traces.vcd
$date
     Apr 12, 2023       09:00:58
$end

$version
 SystemC 2.3.1-Accellera --- Sep 15 2017 16:58:19
$end

$timescale
     1 ps
$end

$scope module SystemC $end
$var wire    1  aaaaa  reset       $end
$var wire   32  aaaab  xn [31:0]  $end
$var wire   32  aaaac  yn [31:0]  $end
$var wire    1  aaaad  clock       $end
$upscope $end
$enddefinitions  $end

$comment
All initial values are dumped below at time 0 sec = 0 timescale units.
$end

$dumpvars
1aaaaa
b0 aaaab
b0 aaaac
1aaaad
$end

#5000
0aaaaa
b110010 aaaab
0aaaad

#10000
b1100 aaaac
1aaaad

#15000
0aaaad

#20000
b11001 aaaac
1aaaad

#25000
0aaaad

#30000
b100101 aaaac
1aaaad

#35000
0aaaad

#40000
b110010 aaaac
1aaaad

#45000
b1010 aaaab
0aaaad

#50000
b101000 aaaac
1aaaad

#55000
b110010 aaaab
0aaaad

#60000
1aaaad

#65000
0aaaad

#70000
1aaaad

#75000
0aaaad

#80000
1aaaad

#85000
0aaaad

#90000
b110010 aaaac
1aaaad

