ex_03_01/traces.vcd
$date
     Apr 12, 2023       11:51:59
$end

$version
 SystemC 2.3.1-Accellera --- Sep 15 2017 16:58:19
$end

$timescale
     1 ps
$end

$scope module SystemC $end
$var wire    1  aaaaa  reset       $end
$var wire   32  aaaab  xn [31:0]  $end
$var wire   32  aaaac  yn [31:0]  $end
$var wire    1  aaaad  clock       $end
$upscope $end
$enddefinitions  $end

$comment
All initial values are dumped below at time 0 sec = 0 timescale units.
$end

$dumpvars
1aaaaa
b0 aaaab
b0 aaaac
0aaaad
$end

#10000
1aaaad

#20000
0aaaaa
b110010 aaaab
0aaaad

#30000
b1100 aaaac
1aaaad

#40000
0aaaad

#50000
b11001 aaaac
1aaaad

#60000
0aaaad

#70000
b100101 aaaac
1aaaad

#80000
0aaaad

#90000
b110010 aaaac
1aaaad

#100000
b1010 aaaab
0aaaad

#110000
1aaaad

#120000
b110010 aaaab
0aaaad

#130000
b11110 aaaac
1aaaad

#140000
0aaaad

#150000
b101000 aaaac
1aaaad

#160000
0aaaad

#170000
1aaaad

#180000
0aaaad

#190000
b110010 aaaac
1aaaad

